{
  "development": {
    "dialect": "sqlite",
    "storage": "./database.sqlite3"
  },
  "test": {
    "dialect": "sqlite",
    "storage": ":memory"
  },
 "production": {
    "use_env_variable" : "postgres://cjngtilivbfobo:759acfa68c5bceaebe1921e3af70bce86696dd9b4ed26e33206a9a3ea6f04084@ec2-18-215-111-67.compute-1.amazonaws.com:5432/dfvihd9al40tdv"
  }
}